module auth

go 1.20

require (
	github.com/google/uuid v1.3.0
	github.com/stretchr/testify v1.8.4
	go.mongodb.org/mongo-driver v1.11.7
)

require (
	github.com/andybalholm/brotli v1.0.5 // indirect
	github.com/davecgh/go-spew v1.1.1 // indirect
	github.com/fsnotify/fsnotify v1.6.0 // indirect
	github.com/gabriel-vasile/mimetype v1.4.2 // indirect
	github.com/go-playground/locales v0.14.1 // indirect
	github.com/go-playground/universal-translator v0.18.1 // indirect
	github.com/golang-jwt/jwt/v5 v5.0.0 // indirect
	github.com/hashicorp/hcl v1.0.0 // indirect
	github.com/leodido/go-urn v1.2.4 // indirect
	github.com/magiconair/properties v1.8.7 // indirect
	github.com/mattn/go-colorable v0.1.13 // indirect
	github.com/mattn/go-isatty v0.0.19 // indirect
	github.com/mattn/go-runewidth v0.0.14 // indirect
	github.com/mitchellh/mapstructure v1.5.0 // indirect
	github.com/pelletier/go-toml/v2 v2.0.8 // indirect
	github.com/philhofer/fwd v1.1.2 // indirect
	github.com/pmezard/go-difflib v1.0.0 // indirect
	github.com/rivo/uniseg v0.2.0 // indirect
	github.com/savsgio/dictpool v0.0.0-20221023140959-7bf2e61cea94 // indirect
	github.com/savsgio/gotils v0.0.0-20230208104028-c358bd845dee // indirect
	github.com/spf13/afero v1.9.5 // indirect
	github.com/spf13/cast v1.5.1 // indirect
	github.com/spf13/jwalterweatherman v1.1.0 // indirect
	github.com/spf13/pflag v1.0.5 // indirect
	github.com/subosito/gotenv v1.4.2 // indirect
	github.com/tinylib/msgp v1.1.8 // indirect
	github.com/valyala/bytebufferpool v1.0.0 // indirect
	github.com/valyala/fasthttp v1.47.0 // indirect
	github.com/valyala/tcplisten v1.0.0 // indirect
	go.uber.org/atomic v1.9.0 // indirect
	go.uber.org/multierr v1.8.0 // indirect
	golang.org/x/net v0.10.0 // indirect
	golang.org/x/sys v0.9.0 // indirect
	gopkg.in/ini.v1 v1.67.0 // indirect
	gopkg.in/yaml.v3 v3.0.1 // indirect
)

require (
	github.com/go-playground/validator/v10 v10.14.1
	github.com/gofiber/fiber/v2 v2.47.0
	github.com/golang/snappy v0.0.1 // indirect
	github.com/jmoiron/sqlx v1.3.5
	github.com/klauspost/compress v1.16.5 // indirect
	github.com/lib/pq v1.10.9
	github.com/montanaflynn/stats v0.0.0-20171201202039-1bf9dbcd8cbe // indirect
	github.com/natefinch/lumberjack v2.0.0+incompatible
	github.com/pkg/errors v0.9.1 // indirect
	github.com/pressly/goose/v3 v3.11.2
	github.com/spf13/viper v1.16.0
	github.com/xdg-go/pbkdf2 v1.0.0 // indirect
	github.com/xdg-go/scram v1.1.1 // indirect
	github.com/xdg-go/stringprep v1.0.3 // indirect
	github.com/youmark/pkcs8 v0.0.0-20181117223130-1be2e3e5546d // indirect
	go.uber.org/zap v1.24.0
	golang.org/x/crypto v0.9.0
	golang.org/x/sync v0.1.0 // indirect
	golang.org/x/text v0.9.0 // indirect
	gopkg.in/natefinch/lumberjack.v2 v2.2.1
)
